…
Building model
Closest allele found HLA-B39:01
No BA_to_HLAp model found, predicting with BA model...
Predicting for 1 peptides
Number of peptides skipped/total due to length 0 / 0
Building model
Closest allele found HLA-B40:02
No BA_to_HLAp model found, predicting with BA model...
Predicting for 1 peptides
Number of peptides skipped/total due to length 0 / 0
Building model
Closest allele found HLA-B58:01
No BA_to_HLAp model found, predicting with BA model...
Using TensorFlow backend.
# A tibble: 130 x 4
   peptide_from haplotype   mhc_class   ic50
   <chr>        <chr>       <chr>      <dbl>
 1 ANLVKVDNI    HLA-A*01:01 I          5431.
 2 ANLVKVDNI    HLA-A*02:01 I          5603.
 3 ANLVKVDNI    HLA-A*03:01 I          5621.
 4 ANLVKVDNI    HLA-A*24:02 I          5384.
 5 ANLVKVDNI    HLA-A*26:01 I         11704.
 6 ANLVKVDNI    HLA-B*07:02 I         30053.
 7 ANLVKVDNI    HLA-B*08:01 I         24925.
 8 ANLVKVDNI    HLA-B*15:01 I         28739.
 9 ANLVKVDNI    HLA-B*18:01 I         29139.
10 ANLVKVDNI    HLA-B*27:05 I         32497.
# … with 120 more rows
…
